mc20_13TeV.346881.PhH7EG_H7UE_NNPDF30_WpH125J_Wincl_MINLO_gammagamma.deriv.DAOD_PHYSLITE.e7929_s3681_r13167_p6490
mc20_13TeV.346881.PhH7EG_H7UE_NNPDF30_WpH125J_Wincl_MINLO_gammagamma.deriv.DAOD_PHYSLITE.e7929_s3681_r13144_p6490
mc20_13TeV.346881.PhH7EG_H7UE_NNPDF30_WpH125J_Wincl_MINLO_gammagamma.deriv.DAOD_PHYSLITE.e7929_s3681_r13145_p6490
