mc20_13TeV.600459.PhPy8EG_PDF4LHC15_HHbbttHadHad_cHHH01d0.deriv.DAOD_PHYS.e8273_s3681_r13144_p6266
mc20_13TeV.600459.PhPy8EG_PDF4LHC15_HHbbttHadHad_cHHH01d0.deriv.DAOD_PHYS.e8273_s3681_r13145_p6266
mc20_13TeV.600459.PhPy8EG_PDF4LHC15_HHbbttHadHad_cHHH01d0.deriv.DAOD_PHYS.e8273_s3681_r13167_p6266

mc20_13TeV.600460.PhPy8EG_PDF4LHC15_HHbbttHadHad_cHHH10d0.deriv.DAOD_PHYS.e8273_s3681_r13144_p6266
mc20_13TeV.600460.PhPy8EG_PDF4LHC15_HHbbttHadHad_cHHH10d0.deriv.DAOD_PHYS.e8273_s3681_r13145_p6266
mc20_13TeV.600460.PhPy8EG_PDF4LHC15_HHbbttHadHad_cHHH10d0.deriv.DAOD_PHYS.e8273_s3681_r13167_p6266

mc20_13TeV.600461.PhPy8EG_PDF4LHC15_HHbbttLepHad_cHHH01d0.deriv.DAOD_PHYS.e8273_s3681_r13144_p6266
mc20_13TeV.600461.PhPy8EG_PDF4LHC15_HHbbttLepHad_cHHH01d0.deriv.DAOD_PHYS.e8273_s3681_r13145_p6266
mc20_13TeV.600461.PhPy8EG_PDF4LHC15_HHbbttLepHad_cHHH01d0.deriv.DAOD_PHYS.e8273_s3681_r13167_p6266

mc20_13TeV.600462.PhPy8EG_PDF4LHC15_HHbbttLepHad_cHHH10d0.deriv.DAOD_PHYS.e8273_s3681_r13144_p6266
mc20_13TeV.600462.PhPy8EG_PDF4LHC15_HHbbttLepHad_cHHH10d0.deriv.DAOD_PHYS.e8273_s3681_r13145_p6266
mc20_13TeV.600462.PhPy8EG_PDF4LHC15_HHbbttLepHad_cHHH10d0.deriv.DAOD_PHYS.e8273_s3681_r13167_p6266

mc20_13TeV.542841.MGPy8EG_hh_bbtt_vbf_novhh_5fs_l1cvv1cv1_hh.deriv.DAOD_PHYS.e8531_a907_r14859_p6266
mc20_13TeV.542841.MGPy8EG_hh_bbtt_vbf_novhh_5fs_l1cvv1cv1_hh.deriv.DAOD_PHYS.e8531_a907_r14860_p6266
mc20_13TeV.542841.MGPy8EG_hh_bbtt_vbf_novhh_5fs_l1cvv1cv1_hh.deriv.DAOD_PHYS.e8531_a907_r14861_p6266

mc20_13TeV.542841.MGPy8EG_hh_bbtt_vbf_novhh_5fs_l1cvv1cv1_hh.deriv.DAOD_PHYS.e8531_s3797_r13144_p6266
mc20_13TeV.542841.MGPy8EG_hh_bbtt_vbf_novhh_5fs_l1cvv1cv1_hh.deriv.DAOD_PHYS.e8531_s3797_r13145_p6266
mc20_13TeV.542841.MGPy8EG_hh_bbtt_vbf_novhh_5fs_l1cvv1cv1_hh.deriv.DAOD_PHYS.e8531_s3797_r13167_p6266

mc20_13TeV.542844.MGPy8EG_hh_bbtt_vbf_novhh_5fs_l1cvv1p5cv1_hh.deriv.DAOD_PHYS.e8531_a907_r14859_p6266
mc20_13TeV.542844.MGPy8EG_hh_bbtt_vbf_novhh_5fs_l1cvv1p5cv1_hh.deriv.DAOD_PHYS.e8531_a907_r14860_p6266
mc20_13TeV.542844.MGPy8EG_hh_bbtt_vbf_novhh_5fs_l1cvv1p5cv1_hh.deriv.DAOD_PHYS.e8531_a907_r14861_p6266

mc20_13TeV.542844.MGPy8EG_hh_bbtt_vbf_novhh_5fs_l1cvv1p5cv1_hh.deriv.DAOD_PHYS.e8531_s3797_r13144_p6266
mc20_13TeV.542844.MGPy8EG_hh_bbtt_vbf_novhh_5fs_l1cvv1p5cv1_hh.deriv.DAOD_PHYS.e8531_s3797_r13145_p6266
mc20_13TeV.542844.MGPy8EG_hh_bbtt_vbf_novhh_5fs_l1cvv1p5cv1_hh.deriv.DAOD_PHYS.e8531_s3797_r13167_p6266

mc20_13TeV.542845.MGPy8EG_hh_bbtt_vbf_novhh_5fs_l2cvv1cv1_hh.deriv.DAOD_PHYS.e8531_a907_r14859_p6266
mc20_13TeV.542845.MGPy8EG_hh_bbtt_vbf_novhh_5fs_l2cvv1cv1_hh.deriv.DAOD_PHYS.e8531_a907_r14860_p6266
mc20_13TeV.542845.MGPy8EG_hh_bbtt_vbf_novhh_5fs_l2cvv1cv1_hh.deriv.DAOD_PHYS.e8531_a907_r14861_p6266

mc20_13TeV.542845.MGPy8EG_hh_bbtt_vbf_novhh_5fs_l2cvv1cv1_hh.deriv.DAOD_PHYS.e8531_s3797_r13144_p6266
mc20_13TeV.542845.MGPy8EG_hh_bbtt_vbf_novhh_5fs_l2cvv1cv1_hh.deriv.DAOD_PHYS.e8531_s3797_r13145_p6266
mc20_13TeV.542845.MGPy8EG_hh_bbtt_vbf_novhh_5fs_l2cvv1cv1_hh.deriv.DAOD_PHYS.e8531_s3797_r13167_p6266

mc20_13TeV.542846.MGPy8EG_hh_bbtt_vbf_novhh_5fs_l10cvv1cv1_hh.deriv.DAOD_PHYS.e8531_a907_r14859_p6266
mc20_13TeV.542846.MGPy8EG_hh_bbtt_vbf_novhh_5fs_l10cvv1cv1_hh.deriv.DAOD_PHYS.e8531_a907_r14860_p6266
mc20_13TeV.542846.MGPy8EG_hh_bbtt_vbf_novhh_5fs_l10cvv1cv1_hh.deriv.DAOD_PHYS.e8531_a907_r14861_p6266

mc20_13TeV.542846.MGPy8EG_hh_bbtt_vbf_novhh_5fs_l10cvv1cv1_hh.deriv.DAOD_PHYS.e8531_s3797_r13144_p6266
mc20_13TeV.542846.MGPy8EG_hh_bbtt_vbf_novhh_5fs_l10cvv1cv1_hh.deriv.DAOD_PHYS.e8531_s3797_r13145_p6266
mc20_13TeV.542846.MGPy8EG_hh_bbtt_vbf_novhh_5fs_l10cvv1cv1_hh.deriv.DAOD_PHYS.e8531_s3797_r13167_p6266

mc20_13TeV.542842.MGPy8EG_hh_bbtt_vbf_novhh_5fs_l1cvv1cv0p5_hh.deriv.DAOD_PHYS.e8531_a907_r14859_p6266
mc20_13TeV.542842.MGPy8EG_hh_bbtt_vbf_novhh_5fs_l1cvv1cv0p5_hh.deriv.DAOD_PHYS.e8531_a907_r14860_p6266
mc20_13TeV.542842.MGPy8EG_hh_bbtt_vbf_novhh_5fs_l1cvv1cv0p5_hh.deriv.DAOD_PHYS.e8531_a907_r14861_p6266

mc20_13TeV.542842.MGPy8EG_hh_bbtt_vbf_novhh_5fs_l1cvv1cv0p5_hh.deriv.DAOD_PHYS.e8531_s3797_r13144_p6266
mc20_13TeV.542842.MGPy8EG_hh_bbtt_vbf_novhh_5fs_l1cvv1cv0p5_hh.deriv.DAOD_PHYS.e8531_s3797_r13145_p6266
mc20_13TeV.542842.MGPy8EG_hh_bbtt_vbf_novhh_5fs_l1cvv1cv0p5_hh.deriv.DAOD_PHYS.e8531_s3797_r13167_p6266

mc20_13TeV.542847.MGPy8EG_hh_bbtt_vbf_novhh_5fs_lm5cvv1cv0p5_hh.deriv.DAOD_PHYS.e8531_a907_r14859_p6266
mc20_13TeV.542847.MGPy8EG_hh_bbtt_vbf_novhh_5fs_lm5cvv1cv0p5_hh.deriv.DAOD_PHYS.e8531_a907_r14860_p6266
mc20_13TeV.542847.MGPy8EG_hh_bbtt_vbf_novhh_5fs_lm5cvv1cv0p5_hh.deriv.DAOD_PHYS.e8531_a907_r14861_p6266

mc20_13TeV.542847.MGPy8EG_hh_bbtt_vbf_novhh_5fs_lm5cvv1cv0p5_hh.deriv.DAOD_PHYS.e8531_s3797_r13144_p6266
mc20_13TeV.542847.MGPy8EG_hh_bbtt_vbf_novhh_5fs_lm5cvv1cv0p5_hh.deriv.DAOD_PHYS.e8531_s3797_r13145_p6266
mc20_13TeV.542847.MGPy8EG_hh_bbtt_vbf_novhh_5fs_lm5cvv1cv0p5_hh.deriv.DAOD_PHYS.e8531_s3797_r13167_p6266

mc20_13TeV.542840.MGPy8EG_hh_bbtt_vbf_novhh_5fs_l1cvv0cv1_hh.deriv.DAOD_PHYS.e8531_a907_r14859_p6266
mc20_13TeV.542840.MGPy8EG_hh_bbtt_vbf_novhh_5fs_l1cvv0cv1_hh.deriv.DAOD_PHYS.e8531_a907_r14860_p6266
mc20_13TeV.542840.MGPy8EG_hh_bbtt_vbf_novhh_5fs_l1cvv0cv1_hh.deriv.DAOD_PHYS.e8531_a907_r14861_p6266

mc20_13TeV.542840.MGPy8EG_hh_bbtt_vbf_novhh_5fs_l1cvv0cv1_hh.deriv.DAOD_PHYS.e8531_s3797_r13144_p6266
mc20_13TeV.542840.MGPy8EG_hh_bbtt_vbf_novhh_5fs_l1cvv0cv1_hh.deriv.DAOD_PHYS.e8531_s3797_r13145_p6266
mc20_13TeV.542840.MGPy8EG_hh_bbtt_vbf_novhh_5fs_l1cvv0cv1_hh.deriv.DAOD_PHYS.e8531_s3797_r13167_p6266

mc20_13TeV.542839.MGPy8EG_hh_bbtt_vbf_novhh_5fs_l0cvv1cv1_hh.deriv.DAOD_PHYS.e8531_a907_r14859_p6266
mc20_13TeV.542839.MGPy8EG_hh_bbtt_vbf_novhh_5fs_l0cvv1cv1_hh.deriv.DAOD_PHYS.e8531_a907_r14860_p6266
mc20_13TeV.542839.MGPy8EG_hh_bbtt_vbf_novhh_5fs_l0cvv1cv1_hh.deriv.DAOD_PHYS.e8531_a907_r14861_p6266

mc20_13TeV.542839.MGPy8EG_hh_bbtt_vbf_novhh_5fs_l0cvv1cv1_hh.deriv.DAOD_PHYS.e8531_s3797_r13144_p6266
mc20_13TeV.542839.MGPy8EG_hh_bbtt_vbf_novhh_5fs_l0cvv1cv1_hh.deriv.DAOD_PHYS.e8531_s3797_r13145_p6266
mc20_13TeV.542839.MGPy8EG_hh_bbtt_vbf_novhh_5fs_l0cvv1cv1_hh.deriv.DAOD_PHYS.e8531_s3797_r13167_p6266

mc20_13TeV.542843.MGPy8EG_hh_bbtt_vbf_novhh_5fs_l1cvv2cv1_hh.deriv.DAOD_PHYS.e8531_a907_r14859_p6266
mc20_13TeV.542843.MGPy8EG_hh_bbtt_vbf_novhh_5fs_l1cvv2cv1_hh.deriv.DAOD_PHYS.e8531_a907_r14860_p6266
mc20_13TeV.542843.MGPy8EG_hh_bbtt_vbf_novhh_5fs_l1cvv2cv1_hh.deriv.DAOD_PHYS.e8531_a907_r14861_p6266

mc20_13TeV.542843.MGPy8EG_hh_bbtt_vbf_novhh_5fs_l1cvv2cv1_hh.deriv.DAOD_PHYS.e8531_s3797_r13144_p6266
mc20_13TeV.542843.MGPy8EG_hh_bbtt_vbf_novhh_5fs_l1cvv2cv1_hh.deriv.DAOD_PHYS.e8531_s3797_r13145_p6266
mc20_13TeV.542843.MGPy8EG_hh_bbtt_vbf_novhh_5fs_l1cvv2cv1_hh.deriv.DAOD_PHYS.e8531_s3797_r13167_p6266

mc20_13TeV.542850.MGPy8EG_hh_bbtt_vbf_novhh_5fs_l1cvv1cv1_lh.deriv.DAOD_PHYS.e8531_a907_r14859_p6266
mc20_13TeV.542850.MGPy8EG_hh_bbtt_vbf_novhh_5fs_l1cvv1cv1_lh.deriv.DAOD_PHYS.e8531_a907_r14860_p6266
mc20_13TeV.542850.MGPy8EG_hh_bbtt_vbf_novhh_5fs_l1cvv1cv1_lh.deriv.DAOD_PHYS.e8531_a907_r14861_p6266

mc20_13TeV.542850.MGPy8EG_hh_bbtt_vbf_novhh_5fs_l1cvv1cv1_lh.deriv.DAOD_PHYS.e8531_s3797_r13144_p6266
mc20_13TeV.542850.MGPy8EG_hh_bbtt_vbf_novhh_5fs_l1cvv1cv1_lh.deriv.DAOD_PHYS.e8531_s3797_r13145_p6266
mc20_13TeV.542850.MGPy8EG_hh_bbtt_vbf_novhh_5fs_l1cvv1cv1_lh.deriv.DAOD_PHYS.e8531_s3797_r13167_p6266

mc20_13TeV.542853.MGPy8EG_hh_bbtt_vbf_novhh_5fs_l1cvv1p5cv1_lh.deriv.DAOD_PHYS.e8531_a907_r14859_p6266
mc20_13TeV.542853.MGPy8EG_hh_bbtt_vbf_novhh_5fs_l1cvv1p5cv1_lh.deriv.DAOD_PHYS.e8531_a907_r14860_p6266
mc20_13TeV.542853.MGPy8EG_hh_bbtt_vbf_novhh_5fs_l1cvv1p5cv1_lh.deriv.DAOD_PHYS.e8531_a907_r14861_p6266

mc20_13TeV.542853.MGPy8EG_hh_bbtt_vbf_novhh_5fs_l1cvv1p5cv1_lh.deriv.DAOD_PHYS.e8531_s3797_r13144_p6266
mc20_13TeV.542853.MGPy8EG_hh_bbtt_vbf_novhh_5fs_l1cvv1p5cv1_lh.deriv.DAOD_PHYS.e8531_s3797_r13145_p6266
mc20_13TeV.542853.MGPy8EG_hh_bbtt_vbf_novhh_5fs_l1cvv1p5cv1_lh.deriv.DAOD_PHYS.e8531_s3797_r13167_p6266

mc20_13TeV.542854.MGPy8EG_hh_bbtt_vbf_novhh_5fs_l2cvv1cv1_lh.deriv.DAOD_PHYS.e8531_a907_r14859_p6266
mc20_13TeV.542854.MGPy8EG_hh_bbtt_vbf_novhh_5fs_l2cvv1cv1_lh.deriv.DAOD_PHYS.e8531_a907_r14860_p6266
mc20_13TeV.542854.MGPy8EG_hh_bbtt_vbf_novhh_5fs_l2cvv1cv1_lh.deriv.DAOD_PHYS.e8531_a907_r14861_p6266

mc20_13TeV.542854.MGPy8EG_hh_bbtt_vbf_novhh_5fs_l2cvv1cv1_lh.deriv.DAOD_PHYS.e8531_s3797_r13144_p6266
mc20_13TeV.542854.MGPy8EG_hh_bbtt_vbf_novhh_5fs_l2cvv1cv1_lh.deriv.DAOD_PHYS.e8531_s3797_r13145_p6266
mc20_13TeV.542854.MGPy8EG_hh_bbtt_vbf_novhh_5fs_l2cvv1cv1_lh.deriv.DAOD_PHYS.e8531_s3797_r13167_p6266

mc20_13TeV.542855.MGPy8EG_hh_bbtt_vbf_novhh_5fs_l10cvv1cv1_lh.deriv.DAOD_PHYS.e8531_a907_r14859_p6266
mc20_13TeV.542855.MGPy8EG_hh_bbtt_vbf_novhh_5fs_l10cvv1cv1_lh.deriv.DAOD_PHYS.e8531_a907_r14860_p6266
mc20_13TeV.542855.MGPy8EG_hh_bbtt_vbf_novhh_5fs_l10cvv1cv1_lh.deriv.DAOD_PHYS.e8531_a907_r14861_p6266

mc20_13TeV.542855.MGPy8EG_hh_bbtt_vbf_novhh_5fs_l10cvv1cv1_lh.deriv.DAOD_PHYS.e8531_s3797_r13144_p6266
mc20_13TeV.542855.MGPy8EG_hh_bbtt_vbf_novhh_5fs_l10cvv1cv1_lh.deriv.DAOD_PHYS.e8531_s3797_r13145_p6266
mc20_13TeV.542855.MGPy8EG_hh_bbtt_vbf_novhh_5fs_l10cvv1cv1_lh.deriv.DAOD_PHYS.e8531_s3797_r13167_p6266

mc20_13TeV.542851.MGPy8EG_hh_bbtt_vbf_novhh_5fs_l1cvv1cv0p5_lh.deriv.DAOD_PHYS.e8531_a907_r14859_p6266
mc20_13TeV.542851.MGPy8EG_hh_bbtt_vbf_novhh_5fs_l1cvv1cv0p5_lh.deriv.DAOD_PHYS.e8531_a907_r14860_p6266
mc20_13TeV.542851.MGPy8EG_hh_bbtt_vbf_novhh_5fs_l1cvv1cv0p5_lh.deriv.DAOD_PHYS.e8531_a907_r14861_p6266

mc20_13TeV.542851.MGPy8EG_hh_bbtt_vbf_novhh_5fs_l1cvv1cv0p5_lh.deriv.DAOD_PHYS.e8531_s3797_r13144_p6266
mc20_13TeV.542851.MGPy8EG_hh_bbtt_vbf_novhh_5fs_l1cvv1cv0p5_lh.deriv.DAOD_PHYS.e8531_s3797_r13145_p6266
mc20_13TeV.542851.MGPy8EG_hh_bbtt_vbf_novhh_5fs_l1cvv1cv0p5_lh.deriv.DAOD_PHYS.e8531_s3797_r13167_p6266

mc20_13TeV.542856.MGPy8EG_hh_bbtt_vbf_novhh_5fs_l5mcvv1cv0p5_lh.deriv.DAOD_PHYS.e8531_a907_r14859_p6266
mc20_13TeV.542856.MGPy8EG_hh_bbtt_vbf_novhh_5fs_l5mcvv1cv0p5_lh.deriv.DAOD_PHYS.e8531_a907_r14860_p6266
mc20_13TeV.542856.MGPy8EG_hh_bbtt_vbf_novhh_5fs_l5mcvv1cv0p5_lh.deriv.DAOD_PHYS.e8531_a907_r14861_p6266

mc20_13TeV.542856.MGPy8EG_hh_bbtt_vbf_novhh_5fs_l5mcvv1cv0p5_lh.deriv.DAOD_PHYS.e8531_s3797_r13144_p6266
mc20_13TeV.542856.MGPy8EG_hh_bbtt_vbf_novhh_5fs_l5mcvv1cv0p5_lh.deriv.DAOD_PHYS.e8531_s3797_r13145_p6266
mc20_13TeV.542856.MGPy8EG_hh_bbtt_vbf_novhh_5fs_l5mcvv1cv0p5_lh.deriv.DAOD_PHYS.e8531_s3797_r13167_p6266

mc20_13TeV.542849.MGPy8EG_hh_bbtt_vbf_novhh_5fs_l1cvv0cv1_lh.deriv.DAOD_PHYS.e8531_a907_r14859_p6266
mc20_13TeV.542849.MGPy8EG_hh_bbtt_vbf_novhh_5fs_l1cvv0cv1_lh.deriv.DAOD_PHYS.e8531_a907_r14860_p6266
mc20_13TeV.542849.MGPy8EG_hh_bbtt_vbf_novhh_5fs_l1cvv0cv1_lh.deriv.DAOD_PHYS.e8531_a907_r14861_p6266

mc20_13TeV.542849.MGPy8EG_hh_bbtt_vbf_novhh_5fs_l1cvv0cv1_lh.deriv.DAOD_PHYS.e8531_s3797_r13144_p6266
mc20_13TeV.542849.MGPy8EG_hh_bbtt_vbf_novhh_5fs_l1cvv0cv1_lh.deriv.DAOD_PHYS.e8531_s3797_r13145_p6266
mc20_13TeV.542849.MGPy8EG_hh_bbtt_vbf_novhh_5fs_l1cvv0cv1_lh.deriv.DAOD_PHYS.e8531_s3797_r13167_p6266

mc20_13TeV.542848.MGPy8EG_hh_bbtt_vbf_novhh_5fs_l0cvv1cv1_lh.deriv.DAOD_PHYS.e8531_a907_r14859_p6266
mc20_13TeV.542848.MGPy8EG_hh_bbtt_vbf_novhh_5fs_l0cvv1cv1_lh.deriv.DAOD_PHYS.e8531_a907_r14860_p6266
mc20_13TeV.542848.MGPy8EG_hh_bbtt_vbf_novhh_5fs_l0cvv1cv1_lh.deriv.DAOD_PHYS.e8531_a907_r14861_p6266

mc20_13TeV.542848.MGPy8EG_hh_bbtt_vbf_novhh_5fs_l0cvv1cv1_lh.deriv.DAOD_PHYS.e8531_s3797_r13144_p6266
mc20_13TeV.542848.MGPy8EG_hh_bbtt_vbf_novhh_5fs_l0cvv1cv1_lh.deriv.DAOD_PHYS.e8531_s3797_r13145_p6266
mc20_13TeV.542848.MGPy8EG_hh_bbtt_vbf_novhh_5fs_l0cvv1cv1_lh.deriv.DAOD_PHYS.e8531_s3797_r13167_p6266

mc20_13TeV.542852.MGPy8EG_hh_bbtt_vbf_novhh_5fs_l1cvv2cv1_lh.deriv.DAOD_PHYS.e8531_a907_r14859_p6266
mc20_13TeV.542852.MGPy8EG_hh_bbtt_vbf_novhh_5fs_l1cvv2cv1_lh.deriv.DAOD_PHYS.e8531_a907_r14860_p6266
mc20_13TeV.542852.MGPy8EG_hh_bbtt_vbf_novhh_5fs_l1cvv2cv1_lh.deriv.DAOD_PHYS.e8531_a907_r14861_p6266

mc20_13TeV.542852.MGPy8EG_hh_bbtt_vbf_novhh_5fs_l1cvv2cv1_lh.deriv.DAOD_PHYS.e8531_s3797_r13144_p6266
mc20_13TeV.542852.MGPy8EG_hh_bbtt_vbf_novhh_5fs_l1cvv2cv1_lh.deriv.DAOD_PHYS.e8531_s3797_r13145_p6266
mc20_13TeV.542852.MGPy8EG_hh_bbtt_vbf_novhh_5fs_l1cvv2cv1_lh.deriv.DAOD_PHYS.e8531_s3797_r13167_p6266

mc20_13TeV.502982.MGPy8EG_hh_bbtt_vbf_novhh_hh_l1cvv1cv1.deriv.DAOD_PHYS.e8273_s3681_r13144_p6266
mc20_13TeV.502982.MGPy8EG_hh_bbtt_vbf_novhh_hh_l1cvv1cv1.deriv.DAOD_PHYS.e8273_s3681_r13145_p6266
mc20_13TeV.502982.MGPy8EG_hh_bbtt_vbf_novhh_hh_l1cvv1cv1.deriv.DAOD_PHYS.e8273_s3681_r13167_p6266

mc20_13TeV.502985.MGPy8EG_hh_bbtt_vbf_novhh_hh_l1cvv1p5cv1.deriv.DAOD_PHYS.e8263_s3681_r13144_p6266
mc20_13TeV.502985.MGPy8EG_hh_bbtt_vbf_novhh_hh_l1cvv1p5cv1.deriv.DAOD_PHYS.e8263_s3681_r13145_p6266
mc20_13TeV.502985.MGPy8EG_hh_bbtt_vbf_novhh_hh_l1cvv1p5cv1.deriv.DAOD_PHYS.e8263_s3681_r13167_p6266

mc20_13TeV.502989.MGPy8EG_hh_bbtt_vbf_novhh_hh_l2cvv1cv1.deriv.DAOD_PHYS.e8263_s3681_r13144_p6266
mc20_13TeV.502989.MGPy8EG_hh_bbtt_vbf_novhh_hh_l2cvv1cv1.deriv.DAOD_PHYS.e8263_s3681_r13145_p6266
mc20_13TeV.502989.MGPy8EG_hh_bbtt_vbf_novhh_hh_l2cvv1cv1.deriv.DAOD_PHYS.e8263_s3681_r13167_p6266

mc20_13TeV.502990.MGPy8EG_hh_bbtt_vbf_novhh_hh_l10cvv1cv1.deriv.DAOD_PHYS.e8263_s3681_r13144_p6266
mc20_13TeV.502990.MGPy8EG_hh_bbtt_vbf_novhh_hh_l10cvv1cv1.deriv.DAOD_PHYS.e8263_s3681_r13145_p6266
mc20_13TeV.502990.MGPy8EG_hh_bbtt_vbf_novhh_hh_l10cvv1cv1.deriv.DAOD_PHYS.e8263_s3681_r13167_p6266

mc20_13TeV.502991.MGPy8EG_hh_bbtt_vbf_novhh_hh_l1cvv1cv0p5.deriv.DAOD_PHYS.e8263_s3681_r13145_p6266
mc20_13TeV.502991.MGPy8EG_hh_bbtt_vbf_novhh_hh_l1cvv1cv0p5.deriv.DAOD_PHYS.e8263_s3681_r13167_p6266

mc20_13TeV.508690.MGPy8EG_hh_bbtt_vbf_novhh_hh_l5mcvv1cv0p5.deriv.DAOD_PHYS.e8338_s3681_r13144_p6266
mc20_13TeV.508690.MGPy8EG_hh_bbtt_vbf_novhh_hh_l5mcvv1cv0p5.deriv.DAOD_PHYS.e8338_s3681_r13145_p6266
mc20_13TeV.508690.MGPy8EG_hh_bbtt_vbf_novhh_hh_l5mcvv1cv0p5.deriv.DAOD_PHYS.e8338_s3681_r13167_p6266

mc20_13TeV.502993.MGPy8EG_hh_bbtt_vbf_novhh_lh_l1cvv1cv1.deriv.DAOD_PHYS.e8273_s3681_r13144_p6266
mc20_13TeV.502993.MGPy8EG_hh_bbtt_vbf_novhh_lh_l1cvv1cv1.deriv.DAOD_PHYS.e8273_s3681_r13145_p6266
mc20_13TeV.502993.MGPy8EG_hh_bbtt_vbf_novhh_lh_l1cvv1cv1.deriv.DAOD_PHYS.e8273_s3681_r13167_p6266

mc20_13TeV.502996.MGPy8EG_hh_bbtt_vbf_novhh_lh_l1cvv1p5cv1.deriv.DAOD_PHYS.e8263_s3681_r13144_p6266
mc20_13TeV.502996.MGPy8EG_hh_bbtt_vbf_novhh_lh_l1cvv1p5cv1.deriv.DAOD_PHYS.e8263_s3681_r13145_p6266
mc20_13TeV.502996.MGPy8EG_hh_bbtt_vbf_novhh_lh_l1cvv1p5cv1.deriv.DAOD_PHYS.e8263_s3681_r13167_p6266

mc20_13TeV.503000.MGPy8EG_hh_bbtt_vbf_novhh_lh_l2cvv1cv1.deriv.DAOD_PHYS.e8273_s3681_r13144_p6266
mc20_13TeV.503000.MGPy8EG_hh_bbtt_vbf_novhh_lh_l2cvv1cv1.deriv.DAOD_PHYS.e8273_s3681_r13145_p6266
mc20_13TeV.503000.MGPy8EG_hh_bbtt_vbf_novhh_lh_l2cvv1cv1.deriv.DAOD_PHYS.e8273_s3681_r13167_p6266

mc20_13TeV.503001.MGPy8EG_hh_bbtt_vbf_novhh_lh_l10cvv1cv1.deriv.DAOD_PHYS.e8263_s3681_r13144_p6266
mc20_13TeV.503001.MGPy8EG_hh_bbtt_vbf_novhh_lh_l10cvv1cv1.deriv.DAOD_PHYS.e8263_s3681_r13145_p6266
mc20_13TeV.503001.MGPy8EG_hh_bbtt_vbf_novhh_lh_l10cvv1cv1.deriv.DAOD_PHYS.e8263_s3681_r13167_p6266

mc20_13TeV.503002.MGPy8EG_hh_bbtt_vbf_novhh_lh_l1cvv1cv0p5.deriv.DAOD_PHYS.e8263_s3681_r13144_p6266
mc20_13TeV.503002.MGPy8EG_hh_bbtt_vbf_novhh_lh_l1cvv1cv0p5.deriv.DAOD_PHYS.e8263_s3681_r13145_p6266
mc20_13TeV.503002.MGPy8EG_hh_bbtt_vbf_novhh_lh_l1cvv1cv0p5.deriv.DAOD_PHYS.e8263_s3681_r13167_p6266

mc20_13TeV.508691.MGPy8EG_hh_bbtt_vbf_novhh_lh_l5mcvv1cv0p5.deriv.DAOD_PHYS.e8338_s3681_r13144_p6266
mc20_13TeV.508691.MGPy8EG_hh_bbtt_vbf_novhh_lh_l5mcvv1cv0p5.deriv.DAOD_PHYS.e8338_s3681_r13145_p6266
mc20_13TeV.508691.MGPy8EG_hh_bbtt_vbf_novhh_lh_l5mcvv1cv0p5.deriv.DAOD_PHYS.e8338_s3681_r13167_p6266

mc20_13TeV.603698.PhPy8EG_PDF4LHC21_hh_bbtt_ggf_chhh0p0_hh.deriv.DAOD_PHYS.e8564_a907_r14859_p6266
mc20_13TeV.603698.PhPy8EG_PDF4LHC21_hh_bbtt_ggf_chhh0p0_hh.deriv.DAOD_PHYS.e8564_a907_r14860_p6266
mc20_13TeV.603698.PhPy8EG_PDF4LHC21_hh_bbtt_ggf_chhh0p0_hh.deriv.DAOD_PHYS.e8564_a907_r14861_p6266

mc20_13TeV.603699.PhPy8EG_PDF4LHC21_hh_bbtt_ggf_chhh10p0_hh.deriv.DAOD_PHYS.e8564_a907_r14859_p6266
mc20_13TeV.603699.PhPy8EG_PDF4LHC21_hh_bbtt_ggf_chhh10p0_hh.deriv.DAOD_PHYS.e8564_a907_r14860_p6266
mc20_13TeV.603699.PhPy8EG_PDF4LHC21_hh_bbtt_ggf_chhh10p0_hh.deriv.DAOD_PHYS.e8564_a907_r14861_p6266

mc20_13TeV.603700.PhPy8EG_PDF4LHC21_hh_bbtt_ggf_chhh1p0_hh.deriv.DAOD_PHYS.e8564_a907_r14859_p6266
mc20_13TeV.603700.PhPy8EG_PDF4LHC21_hh_bbtt_ggf_chhh1p0_hh.deriv.DAOD_PHYS.e8564_a907_r14860_p6266
mc20_13TeV.603700.PhPy8EG_PDF4LHC21_hh_bbtt_ggf_chhh1p0_hh.deriv.DAOD_PHYS.e8564_a907_r14861_p6266

mc20_13TeV.603700.PhPy8EG_PDF4LHC21_hh_bbtt_ggf_chhh1p0_hh.deriv.DAOD_PHYS.e8564_s3797_r13144_p6266
mc20_13TeV.603700.PhPy8EG_PDF4LHC21_hh_bbtt_ggf_chhh1p0_hh.deriv.DAOD_PHYS.e8564_s3797_r13145_p6266
mc20_13TeV.603700.PhPy8EG_PDF4LHC21_hh_bbtt_ggf_chhh1p0_hh.deriv.DAOD_PHYS.e8564_s3797_r13167_p6266

mc20_13TeV.603701.PhPy8EG_PDF4LHC21_hh_bbtt_ggf_chhh2p5_hh.deriv.DAOD_PHYS.e8564_a907_r14859_p6266
mc20_13TeV.603701.PhPy8EG_PDF4LHC21_hh_bbtt_ggf_chhh2p5_hh.deriv.DAOD_PHYS.e8564_a907_r14860_p6266
mc20_13TeV.603701.PhPy8EG_PDF4LHC21_hh_bbtt_ggf_chhh2p5_hh.deriv.DAOD_PHYS.e8564_a907_r14861_p6266

mc20_13TeV.603702.PhPy8EG_PDF4LHC21_hh_bbtt_ggf_chhh5p0_hh.deriv.DAOD_PHYS.e8564_a907_r14861_p6266

mc20_13TeV.603703.PhPy8EG_PDF4LHC21_hh_bbtt_ggf_chhhm1p0_hh.deriv.DAOD_PHYS.e8564_a907_r14861_p6266

mc20_13TeV.603704.PhPy8EG_PDF4LHC21_hh_bbtt_ggf_chhh0p0_lh.deriv.DAOD_PHYS.e8564_a907_r14859_p6266
mc20_13TeV.603704.PhPy8EG_PDF4LHC21_hh_bbtt_ggf_chhh0p0_lh.deriv.DAOD_PHYS.e8564_a907_r14860_p6266
mc20_13TeV.603704.PhPy8EG_PDF4LHC21_hh_bbtt_ggf_chhh0p0_lh.deriv.DAOD_PHYS.e8564_a907_r14861_p6266

mc20_13TeV.603705.PhPy8EG_PDF4LHC21_hh_bbtt_ggf_chhh10p0_lh.deriv.DAOD_PHYS.e8564_a907_r14859_p6266
mc20_13TeV.603705.PhPy8EG_PDF4LHC21_hh_bbtt_ggf_chhh10p0_lh.deriv.DAOD_PHYS.e8564_a907_r14860_p6266
mc20_13TeV.603705.PhPy8EG_PDF4LHC21_hh_bbtt_ggf_chhh10p0_lh.deriv.DAOD_PHYS.e8564_a907_r14861_p6266

mc20_13TeV.603706.PhPy8EG_PDF4LHC21_hh_bbtt_ggf_chhh1p0_lh.deriv.DAOD_PHYS.e8564_a907_r14859_p6266
mc20_13TeV.603706.PhPy8EG_PDF4LHC21_hh_bbtt_ggf_chhh1p0_lh.deriv.DAOD_PHYS.e8564_a907_r14860_p6266
mc20_13TeV.603706.PhPy8EG_PDF4LHC21_hh_bbtt_ggf_chhh1p0_lh.deriv.DAOD_PHYS.e8564_a907_r14861_p6266

mc20_13TeV.603706.PhPy8EG_PDF4LHC21_hh_bbtt_ggf_chhh1p0_lh.deriv.DAOD_PHYS.e8564_s3797_r13144_p6266
mc20_13TeV.603706.PhPy8EG_PDF4LHC21_hh_bbtt_ggf_chhh1p0_lh.deriv.DAOD_PHYS.e8564_s3797_r13145_p6266
mc20_13TeV.603706.PhPy8EG_PDF4LHC21_hh_bbtt_ggf_chhh1p0_lh.deriv.DAOD_PHYS.e8564_s3797_r13167_p6266

mc20_13TeV.603707.PhPy8EG_PDF4LHC21_hh_bbtt_ggf_chhh2p5_lh.deriv.DAOD_PHYS.e8564_a907_r14860_p6266
mc20_13TeV.603707.PhPy8EG_PDF4LHC21_hh_bbtt_ggf_chhh2p5_lh.deriv.DAOD_PHYS.e8564_a907_r14861_p6266

mc20_13TeV.603708.PhPy8EG_PDF4LHC21_hh_bbtt_ggf_chhh5p0_lh.deriv.DAOD_PHYS.e8564_a907_r14859_p6266
mc20_13TeV.603708.PhPy8EG_PDF4LHC21_hh_bbtt_ggf_chhh5p0_lh.deriv.DAOD_PHYS.e8564_a907_r14860_p6266
mc20_13TeV.603708.PhPy8EG_PDF4LHC21_hh_bbtt_ggf_chhh5p0_lh.deriv.DAOD_PHYS.e8564_a907_r14861_p6266

mc20_13TeV.603709.PhPy8EG_PDF4LHC21_hh_bbtt_ggf_chhhm1p0_lh.deriv.DAOD_PHYS.e8564_a907_r14859_p6266
mc20_13TeV.603709.PhPy8EG_PDF4LHC21_hh_bbtt_ggf_chhhm1p0_lh.deriv.DAOD_PHYS.e8564_a907_r14860_p6266
mc20_13TeV.603709.PhPy8EG_PDF4LHC21_hh_bbtt_ggf_chhhm1p0_lh.deriv.DAOD_PHYS.e8564_a907_r14861_p6266
